yalefaces/subject12.glasses,subject02.normal,4570.09861444
yalefaces/subject03.sad,subject03.normal,2225.8454934
yalefaces/subject15.sad,subject15.normal,4911.17586307
yalefaces/subject05.centerlight,subject05.normal,3081.36098278
yalefaces/subject10.rightlight,subject10.normal,7002.82505075
yalefaces/subject04.rightlight,subject06.normal,9724.79806385
yalefaces/subject11.noglasses,10000,5449.80533461
yalefaces/subject08.sleepy,subject09.normal,4971.99415492
yalefaces/subject07.happy,subject07.normal,4057.18389533
yalefaces/subject02.glasses,subject02.normal,4202.699848
yalefaces/subject11.glasses,10000,3786.40619214
yalefaces/subject03.noglasses,subject03.normal,657.240565162
yalefaces/subject07.sleepy,subject07.normal,1145.553939
yalefaces/subject05.rightlight,subject06.normal,9229.4363584
yalefaces/subject11.happy,10000,3442.04215331
yalefaces/subject05.noglasses,subject05.normal,1639.67637578
yalefaces/subject07.glasses,subject07.normal,3811.19249994
yalefaces/subject15.wink,subject03.normal,5433.373941
yalefaces/subject01.happy,subject01.normal,3018.44498433
yalefaces/subject04.sad,subject04.normal,712.492460432
yalefaces/subject02.noglasses,subject02.normal,726.589989159
yalefaces/subject12.surprised,subject05.normal,4849.83338265
yalefaces/subject03.centerlight,subject13.normal,5086.94970452
yalefaces/subject12.wink,subject05.normal,4918.60814273
yalefaces/subject13.glasses,subject13.normal,2440.13578098
yalefaces/subject09.wink,subject09.normal,4071.9101563
yalefaces/subject06.wink,subject06.normal,3319.53608614
yalefaces/subject11.sad,10000,4421.90867118
yalefaces/subject07.noglasses,subject07.normal,606.554883881
yalefaces/subject04.sleepy,subject04.normal,2556.16534754
yalefaces/subject01.noglasses,subject02.normal,5167.91564593
yalefaces/subject06.happy,subject06.normal,1748.70826753
yalefaces/subject15.rightlight,subject06.normal,8204.16326185
yalefaces/subject05.happy,subject05.normal,1469.55690811
yalefaces/subject09.noglasses,subject09.normal,762.719177161
yalefaces/subject08.sad,subject05.normal,5333.80328717
yalefaces/subject11.surprised,10000,3568.79412666
yalefaces/subject05.surprised,subject05.normal,2144.39151057
yalefaces/subject06.surprised,subject06.normal,5716.60006224
yalefaces/subject02.sad,subject02.normal,1989.00271245
yalefaces/subject11.wink,10000,5715.33584769
yalefaces/subject10.glasses,subject01.normal,5375.95410768
yalefaces/subject08.centerlight,subject08.normal,4116.40410319
yalefaces/subject14.happy,subject14.normal,3326.37409832
yalefaces/subject15.sleepy,subject10.normal,5544.3864025
yalefaces/subject02.centerlight,subject02.normal,3704.03358383
yalefaces/subject12.happy,subject05.normal,4599.60130586
yalefaces/subject12.centerlight,subject02.normal,4937.22711326
yalefaces/subject07.sad,subject07.normal,3335.4128754
yalefaces/subject15.noglasses,subject10.normal,5316.97309694
yalefaces/subject10.surprised,subject10.normal,3347.54190451
yalefaces/subject08.happy,subject08.normal,4148.63803175
yalefaces/subject09.rightlight,subject08.normal,7818.7962818
yalefaces/subject09.glasses,subject05.normal,5080.61466705
yalefaces/subject09.sleepy,subject09.normal,3123.66017303
yalefaces/subject05.sad,subject05.normal,1467.14369347
yalefaces/subject05.sleepy,subject05.normal,1416.40874341
yalefaces/subject04.wink,subject04.normal,3330.82114593
yalefaces/subject07.centerlight,subject10.normal,4096.42589776
yalefaces/subject03.glasses,subject03.normal,4995.82263768
yalefaces/subject14.wink,subject14.normal,2578.27704696
yalefaces/subject14.surprised,subject14.normal,3411.13364632
yalefaces/subject13.happy,subject13.normal,1916.69065685
yalefaces/subject13.wink,subject13.normal,2206.01512704
yalefaces/subject10.happy,subject10.normal,2621.57582428
yalefaces/subject01.sad,subject01.normal,2420.85783949
yalefaces/subject09.sad,subject09.normal,3291.88426097
yalefaces/subject02.sleepy,subject02.normal,873.742913569
yalefaces/subject03.wink,subject03.normal,2694.32563083
yalefaces/subject08.wink,subject10.normal,4606.82960665
yalefaces/subject04.glasses,subject04.normal,2858.289923
yalefaces/subject02.wink,subject02.normal,2838.56356692
yalefaces/subject15.glasses,subject10.normal,5196.7693193
yalefaces/subject15.surprised,subject10.normal,5132.1822976
yalefaces/subject09.centerlight,subject03.normal,4899.53877018
yalefaces/subject06.sleepy,subject06.normal,4296.68024881
yalefaces/subject13.rightlight,subject07.normal,7728.77023741
yalefaces/subject03.happy,subject03.normal,1866.05116175
yalefaces/subject05.glasses,subject05.normal,1494.71028614
yalefaces/subject01.sleepy,subject01.normal,2461.52504921
yalefaces/subject10.noglasses,subject10.normal,2753.33509326
yalefaces/subject09.happy,subject09.normal,1928.67743657
yalefaces/subject07.surprised,subject07.normal,3539.47234681
yalefaces/subject14.glasses,subject14.normal,3163.0065651
yalefaces/subject05.wink,subject05.normal,1120.573591
yalefaces/subject12.sleepy,subject05.normal,5077.23870224
yalefaces/subject03.sleepy,subject03.normal,2026.41148186
yalefaces/subject01.glasses.gif,subject01.normal,2717.24127075
yalefaces/subject14.noglasses,subject14.normal,744.838966771
yalefaces/subject04.centerlight,subject04.normal,4073.25760371
yalefaces/subject14.centerlight,subject14.normal,4161.67506043
yalefaces/subject01.glasses,subject01.normal,2717.24127075
yalefaces/subject03.surprised,subject03.normal,4250.63108314
yalefaces/subject15.centerlight,subject15.normal,3778.53250794
yalefaces/subject12.rightlight,subject04.normal,5126.35156764
yalefaces/subject10.centerlight,subject01.normal,5259.13775264
yalefaces/subject08.rightlight,subject10.normal,7876.86780828
yalefaces/subject13.centerlight,subject07.normal,5526.98012224
yalefaces/subject11.centerlight,10000,4251.04565786
yalefaces/subject02.surprised,subject02.normal,3587.19093305
yalefaces/subject11.rightlight,10000,5845.81363662
yalefaces/subject02.happy,subject02.normal,2460.66450174
yalefaces/subject08.surprised,subject13.normal,4634.93392817
yalefaces/subject13.surprised,subject13.normal,3517.13454497
yalefaces/subject13.sleepy,subject13.normal,2984.93109294
yalefaces/subject04.surprised,subject04.normal,3091.32401615
yalefaces/subject06.sad,subject06.normal,2867.7981574
yalefaces/subject12.noglasses,subject12.normal,688.628597779
yalefaces/subject15.happy,subject15.normal,4822.02216943
yalefaces/subject04.noglasses,subject04.normal,3650.903017
yalefaces/subject14.sad,subject14.normal,3920.61084778
yalefaces/subject08.glasses,subject08.normal,738.959904691
yalefaces/subject04.happy,subject04.normal,2146.70311966
yalefaces/subject07.rightlight,subject07.normal,7847.15005198
yalefaces/subject14.sleepy,subject14.normal,1961.05118574
yalefaces/subject10.sad,subject10.normal,2535.77777291
yalefaces/subject01.surprised,subject01.normal,3048.6925451
yalefaces/subject06.noglasses,subject06.normal,739.927957788
yalefaces/subject02.rightlight,subject02.normal,6290.43522705
yalefaces/subject06.glasses,subject06.normal,5778.94215084
yalefaces/subject13.noglasses,subject13.normal,2393.25960115
yalefaces/subject09.surprised,subject09.normal,3088.24728948
yalefaces/subject11.sleepy,10000,5249.91760429
yalefaces/subject10.sleepy,subject10.normal,2163.13435711
yalefaces/subject06.rightlight,subject06.normal,6674.92894215
yalefaces/subject08.noglasses,subject10.normal,4360.34035652
yalefaces/subject14.rightlight,subject06.normal,6612.98939331
yalefaces/subject10.wink,subject10.normal,2389.4560102
yalefaces/subject01.gif,subject01.normal,4811.25812965
yalefaces/subject03.rightlight,subject06.normal,9567.07481966
yalefaces/subject06.centerlight,subject14.normal,6116.99278674
yalefaces/subject13.sad,subject13.normal,2858.15512888
yalefaces/subject07.wink,subject07.normal,3532.71270405
yalefaces/subject01.wink,subject01.normal,3481.92100732
yalefaces/subject12.sad,subject05.normal,4964.59586087
yalefaces/subject01.rightlight,subject06.normal,9651.13790899
