yalefaces/subject12.glasses,10000,6823.58255529
yalefaces/subject03.sad,subject13.leftlight,9012.47290299
yalefaces/subject15.sad,subject10.leftlight,8752.70491665
yalefaces/subject05.centerlight,10000,7282.65619278
yalefaces/subject10.rightlight,subject10.leftlight,8664.94218242
yalefaces/subject04.rightlight,subject14.leftlight,10125.8729202
yalefaces/subject11.noglasses,subject11.leftlight,8196.67250689
yalefaces/subject08.sleepy,subject14.leftlight,9262.01740417
yalefaces/subject07.happy,subject13.leftlight,8745.80463514
yalefaces/subject02.glasses,subject10.leftlight,7056.90650059
yalefaces/subject11.glasses,subject11.leftlight,7828.31320462
yalefaces/subject03.noglasses,subject14.leftlight,9241.62330351
yalefaces/subject07.sleepy,subject14.leftlight,9041.43849516
yalefaces/subject05.rightlight,subject14.leftlight,10010.3445859
yalefaces/subject11.happy,subject13.leftlight,7653.59187604
yalefaces/subject05.noglasses,10000,7626.21958917
yalefaces/subject07.glasses,subject14.leftlight,9207.4477134
yalefaces/subject15.wink,subject13.leftlight,8349.35178086
yalefaces/subject01.happy,subject10.leftlight,8326.76934966
yalefaces/subject04.sad,subject04.leftlight,7497.98807335
yalefaces/subject02.noglasses,subject02.leftlight,6284.28920816
yalefaces/subject12.surprised,subject13.leftlight,6734.06012121
yalefaces/subject03.centerlight,subject13.leftlight,7497.8704417
yalefaces/subject11.normal,subject13.leftlight,7705.84818638
yalefaces/subject12.wink,subject10.leftlight,6660.23818578
yalefaces/subject13.glasses,subject13.leftlight,7817.11632285
yalefaces/subject08.normal,subject14.leftlight,9059.44883383
yalefaces/subject09.wink,subject14.leftlight,9293.66951541
yalefaces/subject06.wink,subject14.leftlight,11610.6390367
yalefaces/subject11.sad,subject13.leftlight,7594.66915704
yalefaces/subject07.noglasses,subject14.leftlight,9022.37328691
yalefaces/subject04.sleepy,subject04.leftlight,7377.63408578
yalefaces/subject01.noglasses,subject02.leftlight,7558.28398857
yalefaces/subject06.happy,subject14.leftlight,11140.2703266
yalefaces/subject15.rightlight,subject14.leftlight,10468.7813498
yalefaces/subject05.happy,10000,7810.32038751
yalefaces/subject09.noglasses,subject14.leftlight,9384.51988682
yalefaces/subject02.normal,subject02.leftlight,6284.28920816
yalefaces/subject08.sad,subject13.leftlight,8697.15915588
yalefaces/subject11.surprised,subject04.leftlight,7947.80330471
yalefaces/subject05.surprised,10000,7636.97992956
yalefaces/subject06.surprised,subject14.leftlight,12466.5949711
yalefaces/subject02.sad,subject02.leftlight,6360.7524945
yalefaces/subject11.wink,subject11.leftlight,8042.47248237
yalefaces/subject10.glasses,subject10.leftlight,7687.32891208
yalefaces/subject08.centerlight,subject14.leftlight,9248.48732109
yalefaces/subject14.happy,subject14.leftlight,9204.0828655
yalefaces/subject15.sleepy,subject14.leftlight,9580.60531349
yalefaces/subject02.centerlight,subject02.leftlight,7290.92545312
yalefaces/subject03.normal,subject14.leftlight,9241.62330351
yalefaces/subject12.happy,subject13.leftlight,7011.75822335
yalefaces/subject12.centerlight,subject02.leftlight,7843.05548925
yalefaces/subject07.sad,subject13.leftlight,8725.6306327
yalefaces/subject15.noglasses,subject14.leftlight,9531.32989762
yalefaces/subject10.surprised,subject10.leftlight,8638.54373158
yalefaces/subject08.happy,subject14.leftlight,9147.44905883
yalefaces/subject09.rightlight,subject14.leftlight,10071.0182126
yalefaces/subject09.glasses,subject13.leftlight,8557.28715738
yalefaces/subject09.sleepy,subject14.leftlight,9266.65337263
yalefaces/subject05.sad,subject13.leftlight,7867.37466054
yalefaces/subject05.sleepy,subject13.leftlight,7852.46174029
yalefaces/subject04.wink,subject04.leftlight,7455.63895714
yalefaces/subject07.centerlight,subject14.leftlight,8752.15307196
yalefaces/subject03.glasses,subject13.leftlight,8169.81186676
yalefaces/subject14.wink,subject14.leftlight,8874.18968793
yalefaces/subject14.surprised,subject14.leftlight,9199.03691551
yalefaces/subject13.happy,subject13.leftlight,7835.46826541
yalefaces/subject13.wink,subject13.leftlight,7802.43290722
yalefaces/subject10.happy,subject10.leftlight,8632.93703867
yalefaces/subject13.normal,subject13.leftlight,7760.65987633
yalefaces/subject01.sad,subject10.leftlight,8264.8398198
yalefaces/subject09.sad,subject14.leftlight,9238.56059349
yalefaces/subject02.sleepy,subject02.leftlight,6306.81527896
yalefaces/subject03.wink,subject14.leftlight,8960.5756794
yalefaces/subject06.normal,subject14.leftlight,10952.3404884
yalefaces/subject08.wink,subject10.leftlight,8422.01711272
yalefaces/subject09.normal,subject14.leftlight,9384.51988682
yalefaces/subject04.glasses,subject04.leftlight,7361.15859188
yalefaces/subject02.wink,subject02.leftlight,6880.21846122
yalefaces/subject15.glasses,subject10.leftlight,9219.21770134
yalefaces/subject12.normal,subject12.leftlight,5557.25396261
yalefaces/subject15.normal,subject14.leftlight,9365.38547321
yalefaces/subject15.surprised,subject14.leftlight,9413.38796346
yalefaces/subject09.centerlight,subject13.leftlight,9328.04657676
yalefaces/subject10.normal,subject14.leftlight,8973.64902587
yalefaces/subject06.sleepy,subject14.leftlight,11818.8114159
yalefaces/subject13.rightlight,subject14.leftlight,9407.31917507
yalefaces/subject03.happy,subject13.leftlight,9099.52550316
yalefaces/subject05.glasses,subject13.leftlight,7740.13382345
yalefaces/subject01.sleepy,subject10.leftlight,8191.40169271
yalefaces/subject10.noglasses,subject10.leftlight,8451.12260934
yalefaces/subject09.happy,subject14.leftlight,9443.3052156
yalefaces/subject07.surprised,subject14.leftlight,9089.27404848
yalefaces/subject14.glasses,subject14.leftlight,8959.47986806
yalefaces/subject05.wink,10000,7745.81502777
yalefaces/subject12.sleepy,subject13.leftlight,7265.058434
yalefaces/subject05.normal,10000,7812.91928653
yalefaces/subject03.sleepy,subject13.leftlight,8986.76985873
yalefaces/subject01.glasses.gif,subject10.leftlight,8340.10744816
yalefaces/subject14.noglasses,subject14.leftlight,8774.18239658
yalefaces/subject04.centerlight,subject04.leftlight,7382.18823576
yalefaces/subject14.centerlight,subject14.leftlight,9394.99802233
yalefaces/subject07.normal,subject14.leftlight,9022.37328691
yalefaces/subject01.glasses,subject10.leftlight,8340.10744816
yalefaces/subject03.surprised,subject14.leftlight,9270.90940377
yalefaces/subject14.normal,subject14.leftlight,8774.18239658
yalefaces/subject15.centerlight,subject14.leftlight,8635.31948554
yalefaces/subject12.rightlight,subject13.leftlight,8437.26244073
yalefaces/subject10.centerlight,subject10.leftlight,6551.57623292
yalefaces/subject08.rightlight,subject14.leftlight,10280.8685245
yalefaces/subject13.centerlight,subject13.leftlight,7800.01008151
yalefaces/subject11.centerlight,subject11.leftlight,7270.97837423
yalefaces/subject01.normal,subject10.leftlight,8394.78937743
yalefaces/subject02.surprised,subject02.leftlight,7261.8362207
yalefaces/subject11.rightlight,subject11.leftlight,8644.30948124
yalefaces/subject02.happy,subject02.leftlight,6111.18997929
yalefaces/subject04.normal,subject04.leftlight,7497.98807335
yalefaces/subject08.surprised,subject13.leftlight,7365.27432879
yalefaces/subject13.surprised,subject13.leftlight,7756.37757264
yalefaces/subject13.sleepy,subject13.leftlight,7677.98028596
yalefaces/subject04.surprised,subject04.leftlight,7320.95560196
yalefaces/subject06.sad,subject14.leftlight,11393.2720964
yalefaces/subject12.noglasses,subject12.leftlight,5557.25396261
yalefaces/subject15.happy,subject13.leftlight,8896.19766745
yalefaces/subject04.noglasses,subject04.leftlight,7429.19931631
yalefaces/subject14.sad,subject14.leftlight,9194.67106267
yalefaces/subject08.glasses,subject14.leftlight,9059.44883383
yalefaces/subject04.happy,subject04.leftlight,7465.68446913
yalefaces/subject07.rightlight,subject14.leftlight,9828.9622011
yalefaces/subject14.sleepy,subject14.leftlight,8813.93614022
yalefaces/subject10.sad,subject10.leftlight,8520.22169262
yalefaces/subject01.surprised,subject10.leftlight,8425.69765804
yalefaces/subject06.noglasses,subject14.leftlight,10952.3404884
yalefaces/subject02.rightlight,subject14.leftlight,8099.08942451
yalefaces/subject06.glasses,subject14.leftlight,12521.6298307
yalefaces/subject13.noglasses,subject13.leftlight,7794.04805993
yalefaces/subject09.surprised,subject14.leftlight,9445.21185314
yalefaces/subject11.sleepy,subject11.leftlight,7915.4662084
yalefaces/subject10.sleepy,subject10.leftlight,8635.31981794
yalefaces/subject06.rightlight,subject14.leftlight,11289.4782113
yalefaces/subject08.noglasses,subject14.leftlight,9080.43043862
yalefaces/subject14.rightlight,subject14.leftlight,11445.059155
yalefaces/subject10.wink,subject10.leftlight,8660.35950769
yalefaces/subject01.gif,subject10.leftlight,7265.81375898
yalefaces/subject03.rightlight,subject14.leftlight,10583.8234456
yalefaces/subject06.centerlight,subject14.leftlight,10216.5608236
yalefaces/subject13.sad,subject13.leftlight,7755.41046585
yalefaces/subject07.wink,subject14.leftlight,9054.24580303
yalefaces/subject01.wink,subject10.leftlight,8170.55095533
yalefaces/subject12.sad,subject10.leftlight,7250.78814277
yalefaces/subject01.rightlight,subject14.leftlight,10391.964126
